\relax 
\bibstyle{turkutesis}
\citation{Lomolino2001}
\citation{Brehm2007}
\citation{Stireman2002}
\@writefile{toc}{\contentsline {section}{\numberline {1}Temporal and spatial variation of Pimplinae (Hymenoptera: Ichneumonidae)through an altitudinal gradient in the tropical Andes}{1}}
\@writefile{toc}{\contentsline {subsubsection}{\numberline {1.0.1}Carol Castillo}{1}}
\@writefile{toc}{\contentsline {subsection}{\numberline {1.1}Abstract}{1}}
\@writefile{toc}{\contentsline {subsection}{\numberline {1.2}1. Introduction}{1}}
\citation{Rosenzweig1995}
\citation{White2010}
\citation{Rosenzweig1995}
\citation{Townes1969}
\citation{Gauld1997}
\citation{Gauld1997}
\citation{Fernandez2006}
\citation{Alvarado2011,Castillo2011,Alvarado2012,Veijalainen2014,Castillo2014}
\citation{Gauld1998}
\citation{Rodriguez-Berrio2009}
\citation{Palacio2010,Alvarado2011,Broad2011,Castillo2011,Alvarado2012,Alvarado2013,Alvarado2013a,Castillo2014,Gomez2014}
\citation{Santos2011}
\citation{Gauld1987}
\citation{Gauld1987}
\citation{Gauld1998,Quicke2012}
\citation{Gauld2002a}
\citation{Townes1969}
\citation{Gauld1991}
\citation{Gauld1998}
\citation{Gauld2002a}
\citation{Saaksjarvi2004}
\@writefile{toc}{\contentsline {subsubsection}{\numberline {1.2.1}1.1 The study organism}{2}}
\citation{Wolda1978}
\citation{Wolda1978a}
\citation{Wolda1980}
\citation{Wolda1983}
\citation{Wolda1988}
\citation{Wolda1978}
\citation{Wolda1988}
\citation{Wolda1978a}
\citation{Wolda1988}
\citation{Wolda1980,Wolda1983}
\citation{Shapiro2000}
\citation{Gauld1987}
\citation{Denlinger1980}
\citation{Godfray1994}
\@writefile{toc}{\contentsline {subsubsection}{\numberline {1.2.2}1.2 Tropical insect seasonality and parasitoid activity}{3}}
\citation{Wolda1988,Denlinger1980,Shapiro2000}
\citation{Gauld1987}
\citation{BARTLETT2000}
\citation{Gaasch1998}
\citation{Wolda1978}
\citation{FernandaCheca2009,Barlow2007,Devries1997,Devries1999,Devries2001,Hill2003}
\citation{Owen1970}
\citation{Godfray1989}
\citation{Wolda1988}
\citation{Gauld1987}
\citation{Korenko2011}
\citation{Gauld1991}
\citation{Gaasch1998}
\citation{Barrantes2008}
\citation{Lomolino2001,Mccain2004}
\citation{Rahbek1995}
\citation{Waide1999,Mittelbach2001}
\citation{Rahbek1995}
\citation{Rahbek2005}
\citation{Rahbek2005}
\citation{Rahbek1995,Rahbek2005}
\citation{Mccoy1990}
\citation{Brehm2007}
\citation{Willmott2003}
\citation{Noort2004,Peck2008,Veijalainen2014}
\citation{Veijalainen2014}
\citation{Lomolino2001}
\citation{Rosenzweig1995}
\citation{Mccain2004}
\citation{Hodkinson2005}
\citation{Elias2009}
\citation{Lomolino2001}
\citation{Colwell1994a}
\citation{Mccain2004}
\@writefile{toc}{\contentsline {subsubsection}{\numberline {1.2.3}1.3 Altitudinal richness patterns}{5}}
\citation{Brehm2003}
\citation{Myers2000,Brummitt2003}
\citation{Larsen2011}
\citation{Porter1980}
\citation{Porter1978,Palacio2007,Palacio2010,Veijalainen2014}
\citation{Malhi2010}
\citation{Killeen2007}
\citation{Rahbek2005}
\citation{Larsen2011a}
\citation{Lawler2009}
\citation{Young1999}
\citation{Larsen2011a}
\@writefile{toc}{\contentsline {subsubsection}{\numberline {1.2.4}1.4 Insect diversity and conservation on tropical Andes}{6}}
\citation{Young1999}
\citation{Girardin2010}
\citation{Young1999}
\citation{Rapp2010}
\citation{Merkord2010}
\citation{Girardin2010}
\@writefile{toc}{\contentsline {subsubsection}{\numberline {1.2.5}1.5 Aim of the study}{7}}
\@writefile{toc}{\contentsline {subsubsection}{\numberline {1.2.6}1.6 Questions of the study}{7}}
\@writefile{toc}{\contentsline {subsection}{\numberline {1.3}2. Materials and methods}{7}}
\@writefile{toc}{\contentsline {subsubsection}{\numberline {1.3.1}2.1. Study area and data}{7}}
\citation{Townes1972}
\citation{Gauld1998}
\citation{Shapiro2000}
\citation{Gauld1991}
\citation{Gauld1998}
\citation{Palacio2007}
\citation{Saaksjarvi2003}
\citation{Gomez2009}
\citation{Diaz2000}
\citation{Porter1970}
\citation{Gauld2002a}
\citation{DaSilvaLoffredo2009}
\citation{Broad2010}
\citation{Khalaim2008}
\citation{Colwell1994}
\citation{Hubbell2001}
\@writefile{toc}{\contentsline {subsubsection}{\numberline {1.3.2}2.2 Sampling}{8}}
\@writefile{toc}{\contentsline {subsubsection}{\numberline {1.3.3}2.3 Analysis}{8}}
\citation{Rapp2010}
\citation{vegan2013}
\@writefile{toc}{\contentsline {subsection}{\numberline {1.4}3. Results}{9}}
\@writefile{toc}{\contentsline {subsubsection}{\numberline {1.4.1}3.1 Altitudinal variation}{10}}
\@writefile{toc}{\contentsline {subsubsection}{\numberline {1.4.2}3.2 Temporal variation}{13}}
\citation{Veijalainen2014}
\citation{Mccoy1990}
\citation{Mccain2004}
\citation{Rahbek2005}
\citation{Mccoy1990}
\citation{Willmott2003}
\citation{Novotny2000}
\citation{Gaston1993}
\citation{Saaksjarvi2004}
\citation{Shapiro2000}
\citation{Veijalainen2014}
\citation{Noort2004}
\citation{Veijalainen2014}
\citation{Willmott2003}
\citation{Colwell1994}
\@writefile{toc}{\contentsline {subsection}{\numberline {1.5}4. Discussion}{14}}
\@writefile{toc}{\contentsline {subsubsection}{\numberline {1.5.1}4.1 Altitudinal patterns}{14}}
\citation{Rahbek2005}
\citation{Malhi2010}
\citation{Killeen2007}
\citation{Shapiro2000}
\citation{Lomolino2001}
\citation{Gentry1992}
\citation{PATTERSON1998}
\citation{Heaney2001}
\citation{Waide1999}
\citation{Waide1999}
\citation{Mittelbach2001}
\citation{Girardin2010}
\citation{Mccain2004}
\citation{Heaney2001,Terborgh1977}
\citation{Elias2009}
\citation{Willmott2001,Willmott2003,Hall2005,Elias2009,Rosser2012}
\citation{Colwell1994a}
\citation{Colwell2004}
\citation{Shapiro2000}
\citation{Gauld1998}
\citation{Devries1997,Devries1999,Devries2001}
\citation{FernandaCheca2009,Barlow2007,Hill2003}
\citation{Shapiro2000}
\citation{Wolda1978}
\@writefile{toc}{\contentsline {subsubsection}{\numberline {1.5.2}4.2 Temporal patterns}{16}}
\citation{Rapp2010}
\citation{Deutsch2008}
\citation{Gaasch1998}
\citation{Shapiro2000}
\citation{Gauld1987}
\citation{Gauld1991}
\citation{Wolda1978}
\citation{Wolda1988}
\citation{Hodkinson2005}
\bibdata{refs}
