\relax 
\providecommand\hyper@newdestlabel[2]{}
\providecommand\HyperFirstAtBeginDocument{\AtBeginDocument}
\HyperFirstAtBeginDocument{\ifx\hyper@anchor\@undefined
\global\let\oldcontentsline\contentsline
\gdef\contentsline#1#2#3#4{\oldcontentsline{#1}{#2}{#3}}
\global\let\oldnewlabel\newlabel
\gdef\newlabel#1#2{\newlabelxx{#1}#2}
\gdef\newlabelxx#1#2#3#4#5#6{\oldnewlabel{#1}{{#2}{#3}}}
\AtEndDocument{\ifx\hyper@anchor\@undefined
\let\contentsline\oldcontentsline
\let\newlabel\oldnewlabel
\fi}
\fi}
\global\let\hyper@last\relax 
\gdef\HyperFirstAtBeginDocument#1{#1}
\providecommand\HyField@AuxAddToFields[1]{}
\providecommand\HyField@AuxAddToCoFields[2]{}
\select@language{english}
\@writefile{toc}{\select@language{english}}
\@writefile{lof}{\select@language{english}}
\@writefile{lot}{\select@language{english}}
\@writefile{toc}{\contentsline {section}{1. Introduction}{1}{section*.1}}
\@writefile{toc}{\contentsline {subsection}{1.1 The study {\color {red}\sout  {organism}}{\color {blue}\uwave  {group}}}{2}{subsection*.2}}
\@writefile{toc}{\contentsline {subsection}{1.2 Tropical insect seasonality and parasitoid activity}{3}{subsection*.3}}
\@writefile{toc}{\contentsline {subsection}{1.3 Altitudinal richness patterns}{7}{subsection*.4}}
\@writefile{toc}{\contentsline {subsection}{1.4 Insect diversity and conservation of tropical Andes}{9}{subsection*.5}}
\@writefile{toc}{\contentsline {subsection}{{\color {red}\sout  {1.5 Aim of the study}}}{10}{subsection*.6}}
\@writefile{toc}{\contentsline {subsection}{{\color {blue}\uwave  {1.5 Aim and questions of the study}}}{11}{subsection*.7}}
\@writefile{toc}{\contentsline {subsection}{{\color {red}\sout  {1.6 Questions of the study}}}{11}{subsection*.8}}
\@writefile{toc}{\contentsline {section}{2. Materials and methods}{12}{section*.9}}
\@writefile{toc}{\contentsline {subsection}{2.1. Study area and data}{12}{subsection*.10}}
\newlabel{RF1}{13}
\@writefile{lot}{\contentsline {table}{\numberline {1}{\ignorespaces {\color {blue}\uwave  {Malaise traps coordinates and sampling effort by locality and time along the altitudinal gradient of the Kos\~nipata valley.}}}}{13}{table.1}}
\@writefile{lof}{\contentsline {figure}{\numberline {1}{\ignorespaces {\color {red}\sout  {Average monthly of }}{\color {blue}\uwave  {Monthly averages for }}humidity, PAR, temperature and precipitation from July 2007 to January 2008. Published in Raap (2010)}}{14}{figure.1}}
\@writefile{toc}{\contentsline {subsection}{2.2 Sampling}{15}{subsection*.11}}
\@writefile{toc}{\contentsline {subsection}{2.3 Analysis}{15}{subsection*.12}}
\@writefile{toc}{\contentsline {section}{3. Results}{19}{section*.13}}
\@writefile{lof}{\contentsline {figure}{\numberline {2}{\ignorespaces Species accumulation curves ({\color {red}\sout  {straight }}{\color {blue}\uwave  {solid }}line) showing their 95\% CI (vertical lines) and behavior of richness estimators based on Malaise trap sampling effort at each sampled altitude in the {\color {red}\sout  {Kos\IeC {\~n}ipata }}{\color {blue}\uwave  {Kos\~nipata }}valley. Chao2, dotted line; Jack2, dashed line.}}{19}{figure.2}}
\@writefile{lot}{\contentsline {table}{\numberline {2}{\ignorespaces {\color {blue}\uwave  {Abundance of the Pimplinae species and morphospecies at the four collecting altitudes in the altitudinal gradient of the Kos\~nipata valley.}}}}{20}{table.2}}
\@writefile{lot}{\contentsline {table}{\numberline {3}{\ignorespaces {\color {blue}\uwave  {Number of species, abundances, singletons and richness estimations at the four collecting altitudes in the Kos\~nipata valley.}}}}{24}{table.3}}
\@writefile{toc}{\contentsline {subsection}{3.1 Richness and {\color {blue}\uwave  {variation in }}species composition {\color {red}\sout  {variation }}between different altitudes}{24}{subsection*.14}}
\@writefile{lof}{\contentsline {figure}{\numberline {3}{\ignorespaces {\color {blue}\uwave  {Altitudinal richness of species (a) and abundance of individuals of Pimplinae (b) at different sampling times. The sampling of July and September are drawn in symbols instead of lines to show the absence of sampling at 2000 m a.s.l. at that time.}}}}{25}{figure.3}}
\@writefile{lof}{\contentsline {figure}{\numberline {4}{\ignorespaces Rarefaction curves at four altitudes. In dash line the 95\% CI of the 1500 m {\color {red}\sout  {.}}a.s.l. curve.}}{26}{figure.4}}
\@writefile{toc}{\contentsline {subsection}{3.2 Temporal variation}{26}{subsection*.15}}
\@writefile{lof}{\contentsline {figure}{\numberline {5}{\ignorespaces NMDS {\color {red}\sout  {ordenation }}{\color {blue}\uwave  {ordination }}diagram showing the changes of species composition through the altitudinal gradient. Each circle represents a malaise trap per month and the size {\color {red}\sout  {correspond to }}{\color {blue}\uwave  {indicates }}the altitude{\color {red}\sout  {, smaller to }}{\color {blue}\uwave  {. The smallest circles are the traps at the }}lowest {\color {blue}\uwave  {altitude }}and {\color {blue}\uwave  {the }}largest {\color {red}\sout  {to }}{\color {blue}\uwave  {are the traps at the }}highest {\color {red}\sout  {elevation}}{\color {blue}\uwave  {altitude}}.}}{27}{figure.5}}
\@writefile{lof}{\contentsline {figure}{\numberline {6}{\ignorespaces Temporal {\color {red}\sout  {pattern }}{\color {blue}\uwave  {patterns }}of richness and {\color {red}\sout  {abundance }}{\color {blue}\uwave  {number of individuals in Pimplinae }}at 1500 and 2800 m {\color {red}\sout  {.}}a.s.l. {\color {blue}\uwave  {(using the standardized number of individuals)}}}}{28}{figure.6}}
\@writefile{toc}{\contentsline {subsection}{3.3 {\color {red}\sout  {Biological composition at different altitudes}}{\color {blue}\uwave  {Temporal and altitudinal variation of number of individuals between parasitoid strategies}}}{28}{subsection*.16}}
\@writefile{lof}{\contentsline {figure}{\numberline {7}{\ignorespaces {\color {blue}\uwave  {Temporal variation of the number of Pimplinae individuals for each parasitoid strategy at 2800 and 1500 m a.s.l. (using the standardized number of individuals)}}}}{29}{figure.7}}
\@writefile{lot}{\contentsline {table}{\numberline {4}{\ignorespaces {\color {blue}\uwave  {Covariances between parasitoid strategies: Idiobiont parasitoids of deeply concealed hosts (Idch), idiobiont parasitoids of weakly concealed hosts(Iwch), koinobiont parasitoids of spiders (Ks) and pseudoparasitoids of spiders (Ps). Covariances in bold had a significant p-value in the permutation test (p \textless {} 0.0005).}}}}{30}{table.4}}
\newlabel{RF2}{31}
\@writefile{lot}{\contentsline {table}{\numberline {5}{\ignorespaces {\color {blue}\uwave  {Comparison of the richness belonging to each parasitoid strategies between different altitudes in the Kos\~nipata valley and the Allpahuayo Mishana lowland rainforest (extracted from S\"a\"aksj\"arvi et al. (2004)). The numbers in parentheses are the percentages of the richness in a strategy at each altitude.}}}}{31}{table.5}}
\@writefile{toc}{\contentsline {section}{4. Discussion}{32}{section*.17}}
\@writefile{toc}{\contentsline {subsection}{4.1 Altitudinal patterns of richness}{32}{subsection*.18}}
\@writefile{toc}{\contentsline {subsection}{4.2 Temporal patterns and {\color {red}\sout  {biological }}composition {\color {blue}\uwave  {of parasitoid strategies }}at different altitudes}{36}{subsection*.19}}
\@writefile{toc}{\contentsline {section}{5. Bibliograhy}{40}{section*.20}}
\@writefile{toc}{\contentsline {section}{6. Appendix}{45}{section*.21}}
