\relax 
\providecommand\hyper@newdestlabel[2]{}
\providecommand\HyperFirstAtBeginDocument{\AtBeginDocument}
\HyperFirstAtBeginDocument{\ifx\hyper@anchor\@undefined
\global\let\oldcontentsline\contentsline
\gdef\contentsline#1#2#3#4{\oldcontentsline{#1}{#2}{#3}}
\global\let\oldnewlabel\newlabel
\gdef\newlabel#1#2{\newlabelxx{#1}#2}
\gdef\newlabelxx#1#2#3#4#5#6{\oldnewlabel{#1}{{#2}{#3}}}
\AtEndDocument{\ifx\hyper@anchor\@undefined
\let\contentsline\oldcontentsline
\let\newlabel\oldnewlabel
\fi}
\fi}
\global\let\hyper@last\relax 
\gdef\HyperFirstAtBeginDocument#1{#1}
\providecommand\HyField@AuxAddToFields[1]{}
\providecommand\HyField@AuxAddToCoFields[2]{}
\@writefile{toc}{\contentsline {subsection}{1.6 Questions of the study}{1}{section*.1}}
\@writefile{toc}{\contentsline {subsection}{3.3 Biological composition at different altitudes}{1}{section*.2}}
\@writefile{lot}{\contentsline {table}{\numberline {1}{\ignorespaces Biological composition of the Pimplinae species at the Kos\IeC {\~n}ipata valley and the Alpahuayo Mishana lowland rainforest [extrated from @Saaksjarvi2004].\relax }}{1}{table.caption.3}}
\@writefile{toc}{\contentsline {subsection}{4.3 Biological composition at different altitudes}{2}{section*.5}}
\@writefile{lof}{\contentsline {figure}{\numberline {1}{\ignorespaces Temporal variation of biological strategies at 2800 and 1500 m.a.s.l.\relax }}{3}{figure.caption.4}}
