\relax 
\providecommand\hyper@newdestlabel[2]{}
\providecommand\HyperFirstAtBeginDocument{\AtBeginDocument}
\HyperFirstAtBeginDocument{\ifx\hyper@anchor\@undefined
\global\let\oldcontentsline\contentsline
\gdef\contentsline#1#2#3#4{\oldcontentsline{#1}{#2}{#3}}
\global\let\oldnewlabel\newlabel
\gdef\newlabel#1#2{\newlabelxx{#1}#2}
\gdef\newlabelxx#1#2#3#4#5#6{\oldnewlabel{#1}{{#2}{#3}}}
\AtEndDocument{\ifx\hyper@anchor\@undefined
\let\contentsline\oldcontentsline
\let\newlabel\oldnewlabel
\fi}
\fi}
\global\let\hyper@last\relax 
\gdef\HyperFirstAtBeginDocument#1{#1}
\providecommand\HyField@AuxAddToFields[1]{}
\providecommand\HyField@AuxAddToCoFields[2]{}
\select@language{english}
\@writefile{toc}{\select@language{english}}
\@writefile{lof}{\select@language{english}}
\@writefile{lot}{\select@language{english}}
\@writefile{toc}{\contentsline {section}{1. Introduction}{1}{section*.1}}
\@writefile{toc}{\contentsline {subsection}{1.1 The study group}{1}{subsection*.2}}
\@writefile{toc}{\contentsline {subsection}{1.2 Tropical insect seasonality and parasitoid activity}{3}{subsection*.3}}
\@writefile{toc}{\contentsline {subsection}{1.3 Altitudinal richness patterns}{5}{subsection*.4}}
\@writefile{toc}{\contentsline {subsection}{1.4 Insect diversity and conservation of tropical Andes}{7}{subsection*.5}}
\@writefile{toc}{\contentsline {subsection}{1.5 Aim and questions of the study}{8}{subsection*.6}}
\@writefile{toc}{\contentsline {section}{2. Materials and methods}{9}{section*.7}}
\@writefile{toc}{\contentsline {subsection}{2.1. Study area and data}{9}{subsection*.8}}
\newlabel{RF1}{10}
\@writefile{lot}{\contentsline {table}{\numberline {1}{\ignorespaces Malaise traps coordinates and sampling effort by locality and time along the altitudinal gradient of the Kos\~nipata valley.}}{10}{table.1}}
\@writefile{lof}{\contentsline {figure}{\numberline {1}{\ignorespaces Monthly averages for humidity, PAR, temperature and precipitation from July 2007 to January 2008. Published in Raap (2010)}}{11}{figure.1}}
\@writefile{toc}{\contentsline {subsection}{2.2 Sampling}{12}{subsection*.9}}
\@writefile{toc}{\contentsline {subsection}{2.3 Analysis}{12}{subsection*.10}}
\@writefile{toc}{\contentsline {section}{3. Results}{15}{section*.11}}
\@writefile{lof}{\contentsline {figure}{\numberline {2}{\ignorespaces Species accumulation curves (solid line) showing their 95\% CI (vertical lines) and behavior of richness estimators based on Malaise trap sampling effort at each sampled altitude in the Kos\~nipata valley. Chao2, dotted line; Jack2, dashed line.}}{15}{figure.2}}
\@writefile{lot}{\contentsline {table}{\numberline {2}{\ignorespaces Abundance of the Pimplinae species and morphospecies at the four collecting altitudes in the altitudinal gradient of the Kos\~nipata valley.}}{16}{table.2}}
\@writefile{toc}{\contentsline {subsection}{3.1 Richness and variation in species composition between different altitudes}{19}{subsection*.12}}
\@writefile{lof}{\contentsline {figure}{\numberline {3}{\ignorespaces Altitudinal richness of species (a) and abundance of individuals of Pimplinae (b) at different sampling times. The sampling of July and September are drawn in symbols instead of lines to show the absence of sampling at 2000 m a.s.l. at that time.}}{20}{figure.3}}
\@writefile{lot}{\contentsline {table}{\numberline {3}{\ignorespaces Number of species, abundances, singletons and richness estimations at the four collecting altitudes in the Kos\~nipata valley.}}{21}{table.3}}
\@writefile{lof}{\contentsline {figure}{\numberline {4}{\ignorespaces Rarefaction curves at four altitudes. In dash line the 95\% CI of the 1500 m a.s.l. curve.}}{21}{figure.4}}
\@writefile{lof}{\contentsline {figure}{\numberline {5}{\ignorespaces NMDS ordination diagram showing the changes of species composition through the altitudinal gradient. Each circle represents a malaise trap per month and the size indicates the altitude. The smallest circles are the traps at the lowest altitude and the largest are the traps at the highest altitude.}}{22}{figure.5}}
\@writefile{toc}{\contentsline {subsection}{3.2 Temporal variation}{22}{subsection*.13}}
\@writefile{lof}{\contentsline {figure}{\numberline {6}{\ignorespaces Temporal patterns of richness and number of individuals in Pimplinae at 1500 and 2800 m a.s.l. (using the standardized number of individuals)}}{23}{figure.6}}
\@writefile{toc}{\contentsline {subsection}{3.3 Temporal and altitudinal variation of abundance of individuals between parasitoid strategies}{23}{subsection*.14}}
\@writefile{lof}{\contentsline {figure}{\numberline {7}{\ignorespaces Temporal variation of the number of Pimplinae individuals for each parasitoid strategy at 2800 and 1500 m a.s.l. (using the standardized number of individuals)}}{24}{figure.7}}
\@writefile{lot}{\contentsline {table}{\numberline {4}{\ignorespaces Covariances between parasitoid strategies: Idiobiont parasitoids of deeply concealed hosts (Idch), idiobiont parasitoids of weakly concealed hosts(Iwch), koinobiont parasitoids of spiders (Ks) and pseudoparasitoids of spiders (Ps). Covariances in bold had a significant p-value in the permutation test (p \textless {} 0.0005).}}{25}{table.4}}
\newlabel{RF2}{26}
\@writefile{lot}{\contentsline {table}{\numberline {5}{\ignorespaces Comparison of the richness belonging to each parasitoid strategies between different altitudes in the Kos\~nipata valley and the Allpahuayo Mishana lowland rainforest (extracted from S\"a\"aksj\"arvi et al. (2004)). The numbers in parentheses are the percentages of the richness in a strategy at each altitude.}}{26}{table.5}}
\@writefile{toc}{\contentsline {section}{4. Discussion}{27}{section*.15}}
\@writefile{toc}{\contentsline {subsection}{4.1 Altitudinal patterns of richness}{27}{subsection*.16}}
\@writefile{toc}{\contentsline {subsection}{4.2 Temporal patterns and composition of parasitoid strategies at different altitudes}{29}{subsection*.17}}
\@writefile{toc}{\contentsline {section}{Acknowledgements}{33}{section*.18}}
\@writefile{toc}{\contentsline {section}{Bibliograhy}{34}{section*.19}}
\@writefile{toc}{\contentsline {section}{7. Appendix}{39}{section*.20}}
